#
# There is insufficient memory for the Java Runtime Environment to continue.
# Native memory allocation (malloc) failed to allocate 431440 bytes for Chunk::new
# Possible reasons:
#   The system is out of physical RAM or swap space
#   In 32 bit mode, the process size limit was hit
# Possible solutions:
#   Reduce memory load on the system
#   Increase physical memory or swap space
#   Check if swap backing store is full
#   Use 64 bit Java on a 64 bit OS
#   Decrease Java heap size (-Xmx/-Xms)
#   Decrease number of Java threads
#   Decrease Java thread stack sizes (-Xss)
#   Set larger code cache with -XX:ReservedCodeCacheSize=
# This output file may be truncated or incomplete.
#
#  Out of Memory Error (allocation.cpp:390), pid=988, tid=8444
#
# JRE version: Java(TM) SE Runtime Environment (8.0_25-b18) (build 1.8.0_25-b18)
# Java VM: Java HotSpot(TM) 64-Bit Server VM (25.25-b02 mixed mode windows-amd64 compressed oops)
# Failed to write core dump. Minidumps are not enabled by default on client versions of Windows
#

---------------  T H R E A D  ---------------

Current thread (0x000000001310d000):  JavaThread "C2 CompilerThread1" daemon [_thread_in_native, id=8444, stack(0x0000000014770000,0x0000000014870000)]

Stack: [0x0000000014770000,0x0000000014870000]
Native frames: (J=compiled Java code, j=interpreted, Vv=VM code, C=native code)
V  [jvm.dll+0x31667a]


Current CompileTask:
C2:   1139  566       4       java.util.Date::normalize (110 bytes)


---------------  P R O C E S S  ---------------

Java Threads: ( => current thread )
  0x0000000014876800 JavaThread "Service Thread" daemon [_thread_blocked, id=8452, stack(0x0000000014d70000,0x0000000014e70000)]
  0x0000000014870800 JavaThread "C1 CompilerThread2" daemon [_thread_blocked, id=8448, stack(0x0000000014c70000,0x0000000014d70000)]
=>0x000000001310d000 JavaThread "C2 CompilerThread1" daemon [_thread_in_native, id=8444, stack(0x0000000014770000,0x0000000014870000)]
  0x000000001311b800 JavaThread "C2 CompilerThread0" daemon [_thread_in_native, id=8436, stack(0x0000000014670000,0x0000000014770000)]
  0x000000001311a800 JavaThread "Attach Listener" daemon [_thread_blocked, id=8432, stack(0x0000000014570000,0x0000000014670000)]
  0x0000000013119800 JavaThread "Signal Dispatcher" daemon [_thread_blocked, id=8428, stack(0x0000000014470000,0x0000000014570000)]
  0x0000000002da4000 JavaThread "Finalizer" daemon [_thread_blocked, id=8372, stack(0x0000000014370000,0x0000000014470000)]
  0x00000000130d7800 JavaThread "Reference Handler" daemon [_thread_blocked, id=8368, stack(0x0000000014270000,0x0000000014370000)]
  0x0000000002cb3800 JavaThread "main" [_thread_in_native, id=8280, stack(0x0000000002ba0000,0x0000000002ca0000)]

Other Threads:
  0x00000000130d5800 VMThread [stack: 0x0000000014170000,0x0000000014270000] [id=8364]
  0x0000000014879800 WatcherThread [stack: 0x0000000014e70000,0x0000000014f70000] [id=8456]

VM state:not at safepoint (normal execution)

VM Mutex/Monitor currently owned by a thread: None

Heap:
 PSYoungGen      total 18944K, used 12497K [0x00000000feb00000, 0x0000000100000000, 0x0000000100000000)
  eden space 16384K, 76% used [0x00000000feb00000,0x00000000ff734690,0x00000000ffb00000)
  from space 2560K, 0% used [0x00000000ffd80000,0x00000000ffd80000,0x0000000100000000)
  to   space 2560K, 0% used [0x00000000ffb00000,0x00000000ffb00000,0x00000000ffd80000)
 ParOldGen       total 44032K, used 0K [0x00000000fc000000, 0x00000000feb00000, 0x00000000feb00000)
  object space 44032K, 0% used [0x00000000fc000000,0x00000000fc000000,0x00000000feb00000)
 Metaspace       used 6659K, capacity 6778K, committed 7040K, reserved 1056768K
  class space    used 787K, capacity 821K, committed 896K, reserved 1048576K

Card table byte_map: [0x0000000001280000,0x00000000012b0000] byte_map_base: 0x0000000000aa0000

Marking Bits: (ParMarkBitMap*) 0x000000006b67d490
 Begin Bits: [0x0000000012570000, 0x0000000012670000)
 End Bits:   [0x0000000012670000, 0x0000000012770000)

Polling page: 0x0000000001250000

CodeCache: size=245760Kb used=2304Kb max_used=2318Kb free=243455Kb
 bounds [0x0000000002db0000, 0x0000000003020000, 0x0000000011db0000]
 total_blobs=894 nmethods=564 adapters=244
 compilation: enabled

Compilation events (10 events):
Event: 1.085 Thread 0x000000001311b800 nmethod 561 0x0000000002febe50 code [0x0000000002febfe0, 0x0000000002fec588]
Event: 1.085 Thread 0x000000001311b800  562       4       sun.util.calendar.Gregorian$Date::setNormalizedYear (7 bytes)
Event: 1.086 Thread 0x000000001311b800 nmethod 562 0x0000000002febc50 code [0x0000000002febd80, 0x0000000002febdf8]
Event: 1.089 Thread 0x000000001310d000 nmethod 556 0x0000000002ff2050 code [0x0000000002ff2360, 0x0000000002ff3650]
Event: 1.091 Thread 0x000000001311b800  563       4       java.lang.String::endsWith (17 bytes)
Event: 1.094 Thread 0x000000001311b800 nmethod 563 0x0000000002feee50 code [0x0000000002feefa0, 0x0000000002fef158]
Event: 1.096 Thread 0x000000001310d000  564       4       java.util.zip.ZipEntry::<init> (43 bytes)
Event: 1.096 Thread 0x000000001311b800  565       4       java.util.zip.ZipFile::getZipEntry (239 bytes)
Event: 1.097 Thread 0x000000001310d000 nmethod 564 0x0000000002fed6d0 code [0x0000000002fed800, 0x0000000002fed898]
Event: 1.097 Thread 0x000000001310d000  566       4       java.util.Date::normalize (110 bytes)

GC Heap History (0 events):
No events

Deoptimization events (1 events):
Event: 0.623 Thread 0x0000000002cb3800 Uncommon trap: reason=range_check action=make_not_entrant pc=0x0000000002f16020 method=sun.reflect.generics.parser.SignatureParser.current()C @ 34

Internal exceptions (10 events):
Event: 0.817 Thread 0x0000000002cb3800 Exception <a 'java/security/PrivilegedActionException'> (0x00000000ff301ed0) thrown at [D:\re\workspace\8-2-build-windows-amd64-cygwin\jdk8u25\1677\hotspot\src\share\vm\prims\jvm.cpp, line 1312]
Event: 0.818 Thread 0x0000000002cb3800 Exception <a 'java/security/PrivilegedActionException'> (0x00000000ff303f38) thrown at [D:\re\workspace\8-2-build-windows-amd64-cygwin\jdk8u25\1677\hotspot\src\share\vm\prims\jvm.cpp, line 1312]
Event: 0.819 Thread 0x0000000002cb3800 Exception <a 'java/security/PrivilegedActionException'> (0x00000000ff307b88) thrown at [D:\re\workspace\8-2-build-windows-amd64-cygwin\jdk8u25\1677\hotspot\src\share\vm\prims\jvm.cpp, line 1312]
Event: 0.820 Thread 0x0000000002cb3800 Exception <a 'java/security/PrivilegedActionException'> (0x00000000ff30cc08) thrown at [D:\re\workspace\8-2-build-windows-amd64-cygwin\jdk8u25\1677\hotspot\src\share\vm\prims\jvm.cpp, line 1312]
Event: 0.820 Thread 0x0000000002cb3800 Exception <a 'java/security/PrivilegedActionException'> (0x00000000ff311a28) thrown at [D:\re\workspace\8-2-build-windows-amd64-cygwin\jdk8u25\1677\hotspot\src\share\vm\prims\jvm.cpp, line 1312]
Event: 0.826 Thread 0x0000000002cb3800 Exception <a 'java/security/PrivilegedActionException'> (0x00000000ff315da0) thrown at [D:\re\workspace\8-2-build-windows-amd64-cygwin\jdk8u25\1677\hotspot\src\share\vm\prims\jvm.cpp, line 1312]
Event: 0.828 Thread 0x0000000002cb3800 Exception <a 'java/security/PrivilegedActionException'> (0x00000000ff3193f0) thrown at [D:\re\workspace\8-2-build-windows-amd64-cygwin\jdk8u25\1677\hotspot\src\share\vm\prims\jvm.cpp, line 1312]
Event: 0.828 Thread 0x0000000002cb3800 Exception <a 'java/security/PrivilegedActionException'> (0x00000000ff31e308) thrown at [D:\re\workspace\8-2-build-windows-amd64-cygwin\jdk8u25\1677\hotspot\src\share\vm\prims\jvm.cpp, line 1312]
Event: 0.829 Thread 0x0000000002cb3800 Exception <a 'java/security/PrivilegedActionException'> (0x00000000ff321448) thrown at [D:\re\workspace\8-2-build-windows-amd64-cygwin\jdk8u25\1677\hotspot\src\share\vm\prims\jvm.cpp, line 1312]
Event: 0.829 Thread 0x0000000002cb3800 Exception <a 'java/security/PrivilegedActionException'> (0x00000000ff323e20) thrown at [D:\re\workspace\8-2-build-windows-amd64-cygwin\jdk8u25\1677\hotspot\src\share\vm\prims\jvm.cpp, line 1312]

Events (10 events):
Event: 0.827 loading class java/util/zip/ZipFile$ZipEntryIterator
Event: 0.828 loading class java/util/zip/ZipFile$ZipEntryIterator done
Event: 0.828 loading class com/google/common/base/Functions
Event: 0.828 loading class com/google/common/base/Functions done
Event: 0.828 loading class com/google/common/base/Functions$ToStringFunction
Event: 0.828 loading class com/google/common/base/Functions$ToStringFunction done
Event: 0.829 loading class com/google/common/collect/Iterators$7
Event: 0.829 loading class com/google/common/collect/Iterators$7 done
Event: 0.829 loading class com/google/common/collect/TransformedIterator
Event: 0.829 loading class com/google/common/collect/TransformedIterator done


Dynamic libraries:
0x00007ff7ae0e0000 - 0x00007ff7ae114000 	C:\Program Files\Java\jdk1.8.0_25\bin\java.exe
0x00007ffdaf170000 - 0x00007ffdaf31d000 	C:\Windows\SYSTEM32\ntdll.dll
0x00007ffdac9b0000 - 0x00007ffdacaea000 	C:\Windows\system32\KERNEL32.DLL
0x00007ffdac550000 - 0x00007ffdac665000 	C:\Windows\system32\KERNELBASE.dll
0x00007ffdaaf00000 - 0x00007ffdaaf8e000 	C:\Windows\system32\apphelp.dll
0x00007ffd95e70000 - 0x00007ffd95ec3000 	C:\Windows\AppPatch\AppPatch64\AcGenral.DLL
0x00007ffdacc50000 - 0x00007ffdaccf7000 	C:\Windows\system32\msvcrt.dll
0x00007ffdac4d0000 - 0x00007ffdac4fe000 	C:\Windows\system32\SspiCli.dll
0x00007ffdaf050000 - 0x00007ffdaf0a1000 	C:\Windows\system32\SHLWAPI.dll
0x00007ffdae9e0000 - 0x00007ffdaeb51000 	C:\Windows\system32\USER32.dll
0x00007ffdae600000 - 0x00007ffdae794000 	C:\Windows\system32\ole32.dll
0x00007ffdacd40000 - 0x00007ffdae268000 	C:\Windows\system32\SHELL32.dll
0x00007ffdab980000 - 0x00007ffdab99e000 	C:\Windows\SYSTEM32\USERENV.dll
0x00007ffdaf0c0000 - 0x00007ffdaf16a000 	C:\Windows\system32\ADVAPI32.dll
0x00007ffd9feb0000 - 0x00007ffd9fecb000 	C:\Windows\SYSTEM32\MPR.dll
0x00007ffdae840000 - 0x00007ffdae980000 	C:\Windows\system32\RPCRT4.dll
0x00007ffdaee10000 - 0x00007ffdaee69000 	C:\Windows\SYSTEM32\sechost.dll
0x00007ffdae3a0000 - 0x00007ffdae5b1000 	C:\Windows\SYSTEM32\combase.dll
0x00007ffdacb00000 - 0x00007ffdacc50000 	C:\Windows\system32\GDI32.dll
0x00007ffdac300000 - 0x00007ffdac314000 	C:\Windows\SYSTEM32\profapi.dll
0x00007ffdaa6b0000 - 0x00007ffdaa762000 	C:\Windows\SYSTEM32\SHCORE.dll
0x00007ffdae5c0000 - 0x00007ffdae5f4000 	C:\Windows\system32\IMM32.DLL
0x00007ffdac850000 - 0x00007ffdac9a2000 	C:\Windows\system32\MSCTF.dll
0x00007ffda9d60000 - 0x00007ffda9fdb000 	C:\Windows\WinSxS\amd64_microsoft.windows.common-controls_6595b64144ccf1df_6.0.9600.18006_none_623f33d3ecbe86e8\COMCTL32.dll
0x000000006c600000 - 0x000000006c6d2000 	C:\Program Files\Java\jdk1.8.0_25\jre\bin\msvcr100.dll
0x000000006aea0000 - 0x000000006b6fa000 	C:\Program Files\Java\jdk1.8.0_25\jre\bin\server\jvm.dll
0x00007ffda5280000 - 0x00007ffda5289000 	C:\Windows\SYSTEM32\WSOCK32.dll
0x00007ffda0ae0000 - 0x00007ffda0aff000 	C:\Windows\SYSTEM32\WINMM.dll
0x00007ffdacaf0000 - 0x00007ffdacaf7000 	C:\Windows\system32\PSAPI.DLL
0x00007ffdaedb0000 - 0x00007ffdaee0a000 	C:\Windows\system32\WS2_32.dll
0x00007ffda0920000 - 0x00007ffda094a000 	C:\Windows\SYSTEM32\WINMMBASE.dll
0x00007ffdacd00000 - 0x00007ffdacd09000 	C:\Windows\system32\NSI.dll
0x00007ffdac3d0000 - 0x00007ffdac41a000 	C:\Windows\SYSTEM32\cfgmgr32.dll
0x00007ffdab150000 - 0x00007ffdab176000 	C:\Windows\SYSTEM32\DEVOBJ.dll
0x000000006c5f0000 - 0x000000006c5ff000 	C:\Program Files\Java\jdk1.8.0_25\jre\bin\verify.dll
0x000000006c5c0000 - 0x000000006c5e8000 	C:\Program Files\Java\jdk1.8.0_25\jre\bin\java.dll
0x000000006c5a0000 - 0x000000006c5b6000 	C:\Program Files\Java\jdk1.8.0_25\jre\bin\zip.dll
0x00007ffdabc90000 - 0x00007ffdabcae000 	C:\Windows\SYSTEM32\CRYPTSP.dll
0x00007ffdab870000 - 0x00007ffdab8a6000 	C:\Windows\system32\rsaenh.dll
0x00007ffdabed0000 - 0x00007ffdabef6000 	C:\Windows\SYSTEM32\bcrypt.dll
0x00007ffdac1d0000 - 0x00007ffdac233000 	C:\Windows\system32\bcryptprimitives.dll
0x00007ffdac240000 - 0x00007ffdac24a000 	C:\Windows\SYSTEM32\CRYPTBASE.dll
0x000000006c580000 - 0x000000006c59a000 	C:\Program Files\Java\jdk1.8.0_25\jre\bin\net.dll
0x00007ffdabc30000 - 0x00007ffdabc89000 	C:\Windows\system32\mswsock.dll
0x00007ffda8ee0000 - 0x00007ffda8f0a000 	C:\Windows\SYSTEM32\IPHLPAPI.DLL
0x00007ffda8ec0000 - 0x00007ffda8eca000 	C:\Windows\SYSTEM32\WINNSI.DLL
0x00007ffda8b70000 - 0x00007ffda8b84000 	C:\Windows\SYSTEM32\dhcpcsvc6.DLL
0x00007ffda8b50000 - 0x00007ffda8b69000 	C:\Windows\SYSTEM32\dhcpcsvc.DLL
0x000000006c560000 - 0x000000006c571000 	C:\Program Files\Java\jdk1.8.0_25\jre\bin\nio.dll
0x00007ffd96530000 - 0x00007ffd966b9000 	C:\Windows\SYSTEM32\dbghelp.dll

VM Arguments:
jvm_args: -Djava.awt.headless=true -Xmx64M -Dfile.encoding=windows-1252 -Duser.country=US -Duser.language=en -Duser.variant 
java_command: com.google.devtools.build.android.desugar.Desugar --input D:\AndroidProjects\Sepita\app\build\intermediates\transforms\stackFramesFixer\debug\22.jar --output D:\AndroidProjects\Sepita\app\build\intermediates\transforms\desugar\debug\19.jar --input D:\AndroidProjects\Sepita\app\build\intermediates\transforms\stackFramesFixer\debug\2.jar --output D:\AndroidProjects\Sepita\app\build\intermediates\transforms\desugar\debug\4.jar --input D:\AndroidProjects\Sepita\app\build\intermediates\transforms\stackFramesFixer\debug\43.jar --output D:\AndroidProjects\Sepita\app\build\intermediates\transforms\desugar\debug\35.jar --input D:\AndroidProjects\Sepita\app\build\intermediates\transforms\stackFramesFixer\debug\19.jar --output D:\AndroidProjects\Sepita\app\build\intermediates\transforms\desugar\debug\16.jar --input D:\AndroidProjects\Sepita\app\build\intermediates\transforms\stackFramesFixer\debug\25.jar --output D:\AndroidProjects\Sepita\app\build\intermediates\transforms\desugar\debug\22.jar --input D:\AndroidProjects\Sepita\app\build\intermediates\transforms\stackFramesFixer\debug\38.jar --output D:\AndroidProjects\Sepita\app\build\intermediates\transforms\desugar\debug\31.jar --input D:\AndroidProjects\Sepita\app\build\intermediates\transforms\stackFramesFixer\debug\4.jar --output D:\AndroidProjects\Sepita\app\build\intermediates\transforms\desugar\debug\6.jar --input D:\AndroidProjects\Sepita\app\build\intermediates\transforms\stackFramesFixer\debug\34.jar --output D:\AndroidProjects\Sepita\app\build\intermediates\transforms\desugar\debug\29.jar --input D:\AndroidProjects\Sepita\materialwheelview\build\intermediates\intermediate-jars\debug\classes.jar --output D:\AndroidProjects\Sepita\app\build\intermediates\transforms\desugar\debug\0.jar --input D:\AndroidProjects\Sepita\app\build\intermediates\transforms\stackFramesFixer\debug\17.jar --output D:\AndroidProjects\Sepita\app\build\intermediates\transforms\desugar\debug\14.jar --input D:\AndroidProjects\Sep
java_class_path (initial): C:\Users\Milad\AppData\Local\Temp\desugar_deploy.jar5298511033725368038
Launcher Type: SUN_STANDARD

Environment Variables:
PATH=C:\ProgramData\Oracle\Java\javapath;C:\Windows\system32;C:\Windows;C:\Windows\System32\Wbem;C:\Windows\System32\WindowsPowerShell\v1.0\;C:\Program Files (x86)\NVIDIA Corporation\PhysX\Common;D:\texlive\2015\bin\win32
USERNAME=Milad
OS=Windows_NT
PROCESSOR_IDENTIFIER=Intel64 Family 6 Model 69 Stepping 1, GenuineIntel



---------------  S Y S T E M  ---------------

OS: Windows 8.1 , 64 bit Build 9600 

CPU:total 4 (2 cores per cpu, 2 threads per core) family 6 model 69 stepping 1, cmov, cx8, fxsr, mmx, sse, sse2, sse3, ssse3, sse4.1, sse4.2, popcnt, avx, avx2, aes, clmul, erms, lzcnt, ht, tsc, tscinvbit, bmi1, bmi2

Memory: 4k page, physical 8268876k(811232k free), swap 11414604k(5128k free)

vm_info: Java HotSpot(TM) 64-Bit Server VM (25.25-b02) for windows-amd64 JRE (1.8.0_25-b18), built on Oct  7 2014 14:25:37 by "java_re" with MS VC++ 10.0 (VS2010)

time: Fri Apr 27 02:41:00 2018
elapsed time: 1 seconds (0d 0h 0m 1s)

